date;progress
2021-05-01;1.3
2021-05-02;2.1
2021-05-03;3.4
2021-05-04;3.4
2021-05-05;3.4
2021-05-06;5.6
2021-05-07;7.1
2021-05-09;11.1
2021-05-10;11.1
2021-05-11;15.7
2021-05-12;18.2
2021-05-13;23.5
2021-05-14;23.5
2021-05-15;28.6
2021-05-16;28.6
2021-05-17;36.4
2021-05-18;44.5
2021-05-19;44.5
2021-05-20;51.3
2021-05-21;57.6
2021-05-22;62.3
2021-05-23;68.7
2021-05-24;77.4
2021-05-25;86.4
2021-05-26;86.4
2021-05-27;93.4
2021-05-28;97.6
2021-05-29;100
2021-05-30;100
2021-05-31;100